Temperature Trend Data Query
…
Now we can look at thresholds by number of years at some minimum number of observations per year.

wqp_peryear_counts <- wqp_data %>%
  mutate(ActivityYear = strftime(ActivityStartDateTime, '%Y')) %>%
  group_by(MonitoringLocationIdentifier, ActivityYear) %>%
  summarize(NumObs = length(ActivityStartDateTime)) %>% 
  ungroup()
wqp_peryear_counts

## # A tibble: 132,784 x 3
##    MonitoringLocationIdentifier ActivityYear NumObs
##    <chr>                        <chr>         <int>
##  1 11113300-00-LTE              2010              3
##  2 11113300-00-LTE              2012              7
##  3 11113300-00-LTE              2013              3
##  4 11113300-00-LTE              2014              4
##  5 11113300-00-LTE-DAMMED       2015              5
##  6 11113300-00C-WKG             2010              6
##  7 11113300-00C-WKG             2011              7
##  8 11113300-00C-WKG             2012              5
##  9 11113300-00C-WKG             2013              5
## 10 11113300-00C-WKG             2014              5
## # ... with 132,774 more rows

We fix the minimum number of observations at 6 such that only years with 6 or more observations count as Complete.

wqp_year_counts <- wqp_peryear_counts %>%
  filter(NumObs >= 6) %>%
  group_by(MonitoringLocationIdentifier) %>%
  summarize(NumFullYears = length(ActivityYear))
wqp_year_counts

## # A tibble: 26,597 x 2
##    MonitoringLocationIdentifier NumFullYears
##    <chr>                               <int>
##  1 11113300-00-LTE                         1
##  2 11113300-00C-WKG                        2
##  3 11113300-00E-CGB                        5
##  4 11113300-00J-PRB                        5
##  5 11113300-00M-HOB                        2
##  6 11113300-00M-SMT                        6
##  7 11113300-00T-WKR                        2
##  8 11113300-01-AMA                         1
##  9 11113300-01-ASH                         5
## 10 11113300-01-BAT                         1
## # ... with 26,587 more rows
…
